2019-05-31 15:17:44
Unit Type to Cleaning Type.
Array
(
    [status] => 0
    [msg] => Data does not exists.
    [code] => 209
)

2019-05-31 15:17:57
Unit Type to Cleaning Type.
Array
(
    [status] => 0
    [msg] => Data does not exists.
    [code] => 209
)

2019-05-31 16:32:03
Unit Type to Cleaning Type.
Array
(
    [status] => 0
    [msg] => Data does not exists.
    [code] => 209
)

2019-05-31 16:33:20
Unit Type to Cleaning Type.
Array
(
    [status] => 1
    [msg] => UnitCleaningType!.
    [code] => 200
    [data] => Array
        (
            [0] => Array
                (
                    [unit_type_id] => 1
                    [unit_name] => Apartment
                    [unit_image] => http://quytech.in/ecleaning//images/unitType/apartment.png
                    [unit_image2] => http://quytech.in/ecleaning//images/unitType/apartment_sel.png
                    [cleanType] => Array
                        (
                        )

                )

            [1] => Array
                (
                    [unit_type_id] => 2
                    [unit_name] => Villa1
                    [unit_image] => http://quytech.in/ecleaning//images/unitType/villa.png
                    [unit_image2] => http://quytech.in/ecleaning//images/unitType/villa_sel.png
                    [cleanType] => Array
                        (
                        )

                )

        )

)

2019-05-31 16:34:17
Unit Type to Cleaning Type.
Array
(
    [status] => 1
    [msg] => UnitCleaningType!.
    [code] => 200
    [data] => Array
        (
            [0] => Array
                (
                    [unit_type_id] => 1
                    [unit_name] => Apartment
                    [unit_image] => http://quytech.in/ecleaning//images/unitType/apartment.png
                    [unit_image2] => http://quytech.in/ecleaning//images/unitType/apartment_sel.png
                    [cleanType] => Array
                        (
                        )

                )

            [1] => Array
                (
                    [unit_type_id] => 2
                    [unit_name] => Villa1
                    [unit_image] => http://quytech.in/ecleaning//images/unitType/villa.png
                    [unit_image2] => http://quytech.in/ecleaning//images/unitType/villa_sel.png
                    [cleanType] => Array
                        (
                        )

                )

        )

)

2019-05-31 16:34:28
Unit Type to Cleaning Type.
Array
(
    [status] => 1
    [msg] => UnitCleaningType!.
    [code] => 200
    [data] => Array
        (
            [0] => Array
                (
                    [unit_type_id] => 1
                    [unit_name] => Apartment
                    [unit_image] => http://quytech.in/ecleaning//images/unitType/apartment.png
                    [unit_image2] => http://quytech.in/ecleaning//images/unitType/apartment_sel.png
                    [cleanType] => Array
                        (
                        )

                )

            [1] => Array
                (
                    [unit_type_id] => 2
                    [unit_name] => Villa1
                    [unit_image] => http://quytech.in/ecleaning//images/unitType/villa.png
                    [unit_image2] => http://quytech.in/ecleaning//images/unitType/villa_sel.png
                    [cleanType] => Array
                        (
                        )

                )

        )

)

2019-05-31 16:57:07
Unit Type to Cleaning Type.
Array
(
    [status] => 1
    [msg] => UnitCleaningType!.
    [code] => 200
    [data] => Array
        (
            [0] => Array
                (
                    [unit_type_id] => 1
                    [unit_name] => Apartment
                    [unit_image] => http://quytech.in/ecleaning//images/unitType/apartment.png
                    [unit_image2] => http://quytech.in/ecleaning//images/unitType/apartment_sel.png
                    [cleanType] => Array
                        (
                            [0] => Array
                                (
                                    [cleaning_type_id] => 1
                                    [cleaning_type] => Normal Cleaning
                                    [is_long_term] => 1
                                )

                            [1] => Array
                                (
                                    [cleaning_type_id] => 2
                                    [cleaning_type] => Deep Cleaning
                                    [is_long_term] => 0
                                )

                            [2] => Array
                                (
                                    [cleaning_type_id] => 6
                                    [cleaning_type] => Floor cleaning
                                    [is_long_term] => 1
                                )

                        )

                )

            [1] => Array
                (
                    [unit_type_id] => 2
                    [unit_name] => Villa1
                    [unit_image] => http://quytech.in/ecleaning//images/unitType/villa.png
                    [unit_image2] => http://quytech.in/ecleaning//images/unitType/villa_sel.png
                    [cleanType] => Array
                        (
                            [0] => Array
                                (
                                    [cleaning_type_id] => 1
                                    [cleaning_type] => Normal Cleaning
                                    [is_long_term] => 1
                                )

                            [1] => Array
                                (
                                    [cleaning_type_id] => 2
                                    [cleaning_type] => Deep Cleaning
                                    [is_long_term] => 0
                                )

                            [2] => Array
                                (
                                    [cleaning_type_id] => 4
                                    [cleaning_type] => Steam Cleaning
                                    [is_long_term] => 1
                                )

                            [3] => Array
                                (
                                    [cleaning_type_id] => 5
                                    [cleaning_type] => Rugh Cleaning
                                    [is_long_term] => 1
                                )

                        )

                )

        )

)

2019-05-31 16:59:29
Unit Type to Cleaning Type.
Array
(
    [status] => 1
    [msg] => UnitCleaningType!.
    [code] => 200
    [data] => Array
        (
            [0] => Array
                (
                    [unit_type_id] => 1
                    [unit_name] => Apartment
                    [unit_image] => http://quytech.in/ecleaning//images/unitType/apartment.png
                    [unit_image2] => http://quytech.in/ecleaning//images/unitType/apartment_sel.png
                    [cleanType] => Array
                        (
                            [0] => Array
                                (
                                    [cleaning_type_id] => 1
                                    [cleaning_type] => Normal Cleaning
                                    [is_long_term] => 1
                                )

                            [1] => Array
                                (
                                    [cleaning_type_id] => 2
                                    [cleaning_type] => Deep Cleaning
                                    [is_long_term] => 0
                                )

                            [2] => Array
                                (
                                    [cleaning_type_id] => 6
                                    [cleaning_type] => Floor cleaning
                                    [is_long_term] => 1
                                )

                        )

                )

            [1] => Array
                (
                    [unit_type_id] => 2
                    [unit_name] => Villa1
                    [unit_image] => http://quytech.in/ecleaning//images/unitType/villa.png
                    [unit_image2] => http://quytech.in/ecleaning//images/unitType/villa_sel.png
                    [cleanType] => Array
                        (
                            [0] => Array
                                (
                                    [cleaning_type_id] => 1
                                    [cleaning_type] => Normal Cleaning
                                    [is_long_term] => 1
                                )

                            [1] => Array
                                (
                                    [cleaning_type_id] => 2
                                    [cleaning_type] => Deep Cleaning
                                    [is_long_term] => 0
                                )

                            [2] => Array
                                (
                                    [cleaning_type_id] => 4
                                    [cleaning_type] => Steam Cleaning
                                    [is_long_term] => 1
                                )

                            [3] => Array
                                (
                                    [cleaning_type_id] => 5
                                    [cleaning_type] => Rugh Cleaning
                                    [is_long_term] => 1
                                )

                        )

                )

        )

)

2019-05-31 17:06:17
Unit Type to Cleaning Type.
Array
(
    [status] => 1
    [msg] => UnitCleaningType!.
    [code] => 200
    [data] => Array
        (
            [0] => Array
                (
                    [unit_type_id] => 1
                    [unit_name] => Apartment
                    [unit_image] => http://quytech.in/ecleaning//images/unitType/apartment.png
                    [unit_image2] => http://quytech.in/ecleaning//images/unitType/apartment_sel.png
                    [cleanType] => Array
                        (
                            [0] => Array
                                (
                                    [cleaning_type_id] => 1
                                    [cleaning_type] => Normal Cleaning
                                    [is_long_term] => 1
                                )

                            [1] => Array
                                (
                                    [cleaning_type_id] => 2
                                    [cleaning_type] => Deep Cleaning
                                    [is_long_term] => 0
                                )

                            [2] => Array
                                (
                                    [cleaning_type_id] => 6
                                    [cleaning_type] => Floor cleaning
                                    [is_long_term] => 1
                                )

                        )

                )

            [1] => Array
                (
                    [unit_type_id] => 2
                    [unit_name] => Villa1
                    [unit_image] => http://quytech.in/ecleaning//images/unitType/villa.png
                    [unit_image2] => http://quytech.in/ecleaning//images/unitType/villa_sel.png
                    [cleanType] => Array
                        (
                            [0] => Array
                                (
                                    [cleaning_type_id] => 1
                                    [cleaning_type] => Normal Cleaning
                                    [is_long_term] => 1
                                )

                            [1] => Array
                                (
                                    [cleaning_type_id] => 2
                                    [cleaning_type] => Deep Cleaning
                                    [is_long_term] => 0
                                )

                            [2] => Array
                                (
                                    [cleaning_type_id] => 4
                                    [cleaning_type] => Steam Cleaning
                                    [is_long_term] => 1
                                )

                            [3] => Array
                                (
                                    [cleaning_type_id] => 5
                                    [cleaning_type] => Rugh Cleaning
                                    [is_long_term] => 1
                                )

                        )

                )

        )

)

2019-05-31 17:10:13
Unit Type to Cleaning Type.
Array
(
    [status] => 1
    [msg] => UnitCleaningType!.
    [code] => 200
    [data] => Array
        (
            [0] => Array
                (
                    [unit_type_id] => 1
                    [unit_name] => Apartment
                    [unit_image] => http://quytech.in/ecleaning//images/unitType/apartment.png
                    [unit_image2] => http://quytech.in/ecleaning//images/unitType/apartment_sel.png
                    [cleanType] => Array
                        (
                            [0] => Array
                                (
                                    [cleaning_type_id] => 1
                                    [cleaning_type] => Normal Cleaning
                                    [is_long_term] => 1
                                )

                            [1] => Array
                                (
                                    [cleaning_type_id] => 2
                                    [cleaning_type] => Deep Cleaning
                                    [is_long_term] => 0
                                )

                            [2] => Array
                                (
                                    [cleaning_type_id] => 6
                                    [cleaning_type] => Floor cleaning
                                    [is_long_term] => 1
                                )

                        )

                )

            [1] => Array
                (
                    [unit_type_id] => 2
                    [unit_name] => Villa1
                    [unit_image] => http://quytech.in/ecleaning//images/unitType/villa.png
                    [unit_image2] => http://quytech.in/ecleaning//images/unitType/villa_sel.png
                    [cleanType] => Array
                        (
                            [0] => Array
                                (
                                    [cleaning_type_id] => 1
                                    [cleaning_type] => Normal Cleaning
                                    [is_long_term] => 1
                                )

                            [1] => Array
                                (
                                    [cleaning_type_id] => 2
                                    [cleaning_type] => Deep Cleaning
                                    [is_long_term] => 0
                                )

                            [2] => Array
                                (
                                    [cleaning_type_id] => 4
                                    [cleaning_type] => Steam Cleaning
                                    [is_long_term] => 1
                                )

                            [3] => Array
                                (
                                    [cleaning_type_id] => 5
                                    [cleaning_type] => Rugh Cleaning
                                    [is_long_term] => 1
                                )

                        )

                )

        )

)

2019-05-31 17:15:12
Unit Type to Cleaning Type.
Array
(
    [status] => 1
    [msg] => UnitCleaningType!.
    [code] => 200
    [data] => Array
        (
            [0] => Array
                (
                    [unit_type_id] => 1
                    [unit_name] => Apartment
                    [unit_image] => http://quytech.in/ecleaning//images/unitType/apartment.png
                    [unit_image2] => http://quytech.in/ecleaning//images/unitType/apartment_sel.png
                    [cleanType] => Array
                        (
                            [0] => Array
                                (
                                    [cleaning_type_id] => 1
                                    [cleaning_type] => Normal Cleaning
                                    [is_long_term] => 1
                                )

                            [1] => Array
                                (
                                    [cleaning_type_id] => 2
                                    [cleaning_type] => Deep Cleaning
                                    [is_long_term] => 0
                                )

                            [2] => Array
                                (
                                    [cleaning_type_id] => 6
                                    [cleaning_type] => Floor cleaning
                                    [is_long_term] => 1
                                )

                        )

                )

            [1] => Array
                (
                    [unit_type_id] => 2
                    [unit_name] => Villa1
                    [unit_image] => http://quytech.in/ecleaning//images/unitType/villa.png
                    [unit_image2] => http://quytech.in/ecleaning//images/unitType/villa_sel.png
                    [cleanType] => Array
                        (
                            [0] => Array
                                (
                                    [cleaning_type_id] => 1
                                    [cleaning_type] => Normal Cleaning
                                    [is_long_term] => 1
                                )

                            [1] => Array
                                (
                                    [cleaning_type_id] => 2
                                    [cleaning_type] => Deep Cleaning
                                    [is_long_term] => 0
                                )

                            [2] => Array
                                (
                                    [cleaning_type_id] => 4
                                    [cleaning_type] => Steam Cleaning
                                    [is_long_term] => 1
                                )

                            [3] => Array
                                (
                                    [cleaning_type_id] => 5
                                    [cleaning_type] => Rugh Cleaning
                                    [is_long_term] => 1
                                )

                        )

                )

        )

)

2019-05-31 17:19:07
Unit Type to Cleaning Type.
Array
(
    [status] => 1
    [msg] => UnitCleaningType!.
    [code] => 200
    [data] => Array
        (
            [0] => Array
                (
                    [unit_type_id] => 1
                    [unit_name] => Apartment
                    [unit_image] => http://quytech.in/ecleaning//images/unitType/apartment.png
                    [unit_image2] => http://quytech.in/ecleaning//images/unitType/apartment_sel.png
                    [cleanType] => Array
                        (
                            [0] => Array
                                (
                                    [cleaning_type_id] => 1
                                    [cleaning_type] => Normal Cleaning
                                    [is_long_term] => 1
                                )

                            [1] => Array
                                (
                                    [cleaning_type_id] => 2
                                    [cleaning_type] => Deep Cleaning
                                    [is_long_term] => 0
                                )

                            [2] => Array
                                (
                                    [cleaning_type_id] => 6
                                    [cleaning_type] => Floor cleaning
                                    [is_long_term] => 1
                                )

                        )

                )

            [1] => Array
                (
                    [unit_type_id] => 2
                    [unit_name] => Villa1
                    [unit_image] => http://quytech.in/ecleaning//images/unitType/villa.png
                    [unit_image2] => http://quytech.in/ecleaning//images/unitType/villa_sel.png
                    [cleanType] => Array
                        (
                            [0] => Array
                                (
                                    [cleaning_type_id] => 1
                                    [cleaning_type] => Normal Cleaning
                                    [is_long_term] => 1
                                )

                            [1] => Array
                                (
                                    [cleaning_type_id] => 2
                                    [cleaning_type] => Deep Cleaning
                                    [is_long_term] => 0
                                )

                            [2] => Array
                                (
                                    [cleaning_type_id] => 4
                                    [cleaning_type] => Steam Cleaning
                                    [is_long_term] => 1
                                )

                            [3] => Array
                                (
                                    [cleaning_type_id] => 5
                                    [cleaning_type] => Rugh Cleaning
                                    [is_long_term] => 1
                                )

                        )

                )

        )

)

2019-05-31 17:21:41
Unit Type to Cleaning Type.
Array
(
    [status] => 1
    [msg] => UnitCleaningType!.
    [code] => 200
    [data] => Array
        (
            [0] => Array
                (
                    [unit_type_id] => 1
                    [unit_name] => Apartment
                    [unit_image] => http://quytech.in/ecleaning//images/unitType/apartment.png
                    [unit_image2] => http://quytech.in/ecleaning//images/unitType/apartment_sel.png
                    [cleanType] => Array
                        (
                            [0] => Array
                                (
                                    [cleaning_type_id] => 1
                                    [cleaning_type] => Normal Cleaning
                                    [is_long_term] => 1
                                )

                            [1] => Array
                                (
                                    [cleaning_type_id] => 2
                                    [cleaning_type] => Deep Cleaning
                                    [is_long_term] => 0
                                )

                            [2] => Array
                                (
                                    [cleaning_type_id] => 6
                                    [cleaning_type] => Floor cleaning
                                    [is_long_term] => 1
                                )

                        )

                )

            [1] => Array
                (
                    [unit_type_id] => 2
                    [unit_name] => Villa1
                    [unit_image] => http://quytech.in/ecleaning//images/unitType/villa.png
                    [unit_image2] => http://quytech.in/ecleaning//images/unitType/villa_sel.png
                    [cleanType] => Array
                        (
                            [0] => Array
                                (
                                    [cleaning_type_id] => 1
                                    [cleaning_type] => Normal Cleaning
                                    [is_long_term] => 1
                                )

                            [1] => Array
                                (
                                    [cleaning_type_id] => 2
                                    [cleaning_type] => Deep Cleaning
                                    [is_long_term] => 0
                                )

                            [2] => Array
                                (
                                    [cleaning_type_id] => 4
                                    [cleaning_type] => Steam Cleaning
                                    [is_long_term] => 1
                                )

                            [3] => Array
                                (
                                    [cleaning_type_id] => 5
                                    [cleaning_type] => Rugh Cleaning
                                    [is_long_term] => 1
                                )

                        )

                )

        )

)

2019-05-31 18:23:50
Unit Type to Cleaning Type.
Array
(
    [status] => 1
    [msg] => UnitCleaningType!.
    [code] => 200
    [data] => Array
        (
            [0] => Array
                (
                    [unit_type_id] => 1
                    [unit_name] => Apartment
                    [unit_image] => http://quytech.in/ecleaning//images/unitType/apartment.png
                    [unit_image2] => http://quytech.in/ecleaning//images/unitType/apartment_sel.png
                    [cleanType] => Array
                        (
                            [0] => Array
                                (
                                    [cleaning_type_id] => 1
                                    [cleaning_type] => Normal Cleaning
                                    [is_long_term] => 1
                                )

                            [1] => Array
                                (
                                    [cleaning_type_id] => 2
                                    [cleaning_type] => Deep Cleaning
                                    [is_long_term] => 0
                                )

                            [2] => Array
                                (
                                    [cleaning_type_id] => 6
                                    [cleaning_type] => Floor cleaning
                                    [is_long_term] => 1
                                )

                        )

                )

            [1] => Array
                (
                    [unit_type_id] => 2
                    [unit_name] => Villa1
                    [unit_image] => http://quytech.in/ecleaning//images/unitType/villa.png
                    [unit_image2] => http://quytech.in/ecleaning//images/unitType/villa_sel.png
                    [cleanType] => Array
                        (
                            [0] => Array
                                (
                                    [cleaning_type_id] => 1
                                    [cleaning_type] => Normal Cleaning
                                    [is_long_term] => 1
                                )

                            [1] => Array
                                (
                                    [cleaning_type_id] => 2
                                    [cleaning_type] => Deep Cleaning
                                    [is_long_term] => 0
                                )

                            [2] => Array
                                (
                                    [cleaning_type_id] => 4
                                    [cleaning_type] => Steam Cleaning
                                    [is_long_term] => 1
                                )

                            [3] => Array
                                (
                                    [cleaning_type_id] => 5
                                    [cleaning_type] => Rugh Cleaning
                                    [is_long_term] => 1
                                )

                        )

                )

        )

)

